{
  "title":"Mario",
  "difficulty":"easy",
  "grid":[
    ["ffffff", "ffffff", "ffffff", "ffffff", "ffffff", "ffffff", "ffffff", "ffffff", "ffffff", "ffffff", "ffffff", "ffffff", "ffffff"],
    ["ffffff", "ffffff", "ffffff", "ff0000", "ff0000", "ff0000", "ff0000", "ff0000", "ff0000", "ffffff", "ffffff", "ffffff", "ffffff"],
    ["ffffff", "ffffff", "ff0000", "ff0000", "ff0000", "ff0000", "ff0000", "ff0000", "ff0000", "ff0000", "ff0000", "ff0000", "ffffff"],
    ["ffffff", "ffffff", "993300", "993300", "993300", "ffcc99", "ffcc99", "ffcc99", "000000", "ffcc99", "ffffff", "ffffff", "ffffff"],
    ["ffffff", "993300", "ffcc99", "993300", "ffcc99", "ffcc99", "ffcc99", "ffcc99", "000000", "ffcc99", "ffcc99", "ffcc99", "ffffff"],
    ["ffffff", "993300", "ffcc99", "993300", "993300", "ffcc99", "ffcc99", "ffcc99", "ffcc99", "000000", "ffcc99", "ffcc99", "ffcc99"],
    ["ffffff", "993300", "993300", "ffcc99", "ffcc99", "ffcc99", "ffcc99", "ffcc99", "000000", "000000", "000000", "000000", "ffffff"],
    ["ffffff", "ffffff", "ffffff", "ffcc99", "ffcc99", "ffcc99", "ffcc99", "ffcc99", "ffcc99", "ffcc99", "ffcc99", "ffffff", "ffffff"],
    ["ffffff", "ffffff", "ff0000", "ff0000", "0066ff", "ff0000", "ff0000", "ff0000", "ff0000", "ffffff", "ffffff", "ffffff", "ffffff"],
    ["ffffff", "ff0000", "ff0000", "ff0000", "0066ff", "ff0000", "ff0000", "0066ff", "ff0000", "ff0000", "ff0000", "ffffff", "ffffff"],
    ["ff0000", "ff0000", "ff0000", "ff0000", "0066ff", "0066ff", "0066ff", "0066ff", "ff0000", "ff0000", "ff0000", "ff0000", "ffffff"],
    ["ffcc99", "ffcc99", "ff0000", "0066ff", "ffff00", "0066ff", "0066ff", "ffff00", "0066ff", "ff0000", "ffcc99", "ffcc99", "ffffff"],
    ["ffcc99", "ffcc99", "ffcc99", "0066ff", "0066ff", "0066ff", "0066ff", "0066ff", "0066ff", "ffcc99", "ffcc99", "ffcc99", "ffffff"],
    ["ffcc99", "ffcc99", "0066ff", "0066ff", "0066ff", "0066ff", "0066ff", "0066ff", "0066ff", "0066ff", "ffcc99", "ffcc99", "ffffff"],
    ["ffffff", "ffffff", "0066ff", "0066ff", "0066ff", "ffffff", "ffffff", "0066ff", "0066ff", "0066ff", "ffffff", "ffffff", "ffffff"],
    ["ffffff", "993300", "993300", "993300", "ffffff", "ffffff", "ffffff", "ffffff", "993300", "993300", "993300", "ffffff", "ffffff"],
    ["993300", "993300", "993300", "993300", "ffffff", "ffffff", "ffffff", "ffffff", "993300", "993300", "993300", "993300", "ffffff"]
]}
